Cleaning data – Impressive Climate Science
…
Codebook

codebook <- d |> 
  slice(1) |> 
  pivot_longer(everything(), 
               names_to = "variable", 
               values_to = "description") |> 
  # remove _1 at the end of string
  mutate(variable = str_remove(variable, "_1$"))

codebook

# A tibble: 27 × 2
   variable              description          
   <chr>                 <chr>                
 1 startdate             Start Date           
 2 enddate               End Date             
 3 status                Response Type        
 4 progress              Progress             
 5 duration (in seconds) Duration (in seconds)
 6 finished              Finished             
 7 recordeddate          Recorded Date        
 8 responseid            Response ID          
 9 distributionchannel   Distribution Channel 
10 userlanguage          User Language        
# ℹ 17 more rows
…
